pset3
…
We get the conclusion: No, they do not match.

mean(prov_hhrg\(episodesnum1) = 4221877 mean(prov\)episodesnum2) = 6009268

For the dataset prov, episode num is divided into LUPA and Non-LUPA, which might have led to a different, more detailed documentation, thus higher number.

What two columns uniquely identify all the rows in prov_hhrg? (Hint: use n_distinct to document your answer.)

HHRG and Provider ID.

prov_hhrg %>%
    group_by(`HHRG`, `Provider ID`) %>%
  summarise(n_hhrg = n_distinct(`Provider ID`))

## # A tibble: 105,400 x 3
## # Groups:   HHRG [?]
##    HHRG  `Provider ID` n_hhrg
##    <chr>         <dbl>  <int>
##  1 1AFK          17009      1
##  2 1AFK          17014      1
##  3 1AFK          17018      1
##  4 1AFK          17024      1
##  5 1AFK          17025      1
##  6 1AFK          17034      1
##  7 1AFK          17035      1
##  8 1AFK          17051      1
##  9 1AFK          17053      1
## 10 1AFK          17066      1
## # ... with 105,390 more rows
…
